mc20_13TeV.410472.PhPy8EG_A14_ttbar_hdamp258p75_dil.deriv.DAOD_PHYSLITE.e6348_s3681_r13144_p5855
mc20_13TeV.410472.PhPy8EG_A14_ttbar_hdamp258p75_dil.deriv.DAOD_PHYSLITE.e6348_s3681_r13145_p5855
mc20_13TeV.410472.PhPy8EG_A14_ttbar_hdamp258p75_dil.deriv.DAOD_PHYSLITE.e6348_s3681_r13167_p5855
